﻿1800,1830
1840,1850
1830,1840
1850,2000
3500,3525
18068,18109.5
3525,3580
18100,18105
3580,3620
18105,18109.5
3620,3635
18109.5,18110.5
3635,3775
18110.5,18168
3775,3800
3800,3840
21000,21090
3840,3850
21090,21125
3850,4000
21125,21149.5
21149.5,21150.5
7000,7035
21150.5,21335
7035,7040
21335,21345
7040,7050
21345-21450
7050,7100
7100,7120
24890,24920
7120,7165
24920-24925
7165,7175
24925,24929.5
7175,7300
24929.5,24930.5
24930.5,24990
10100,10130
10130,10140
28000,28070
10140,10150
28070,28120
28120,28189.5
14000,14070
28189.528199.5
14070,14099
28199.5,28200.5
14095,14099.5
28200.5,28670
14099.5,14100.5
28670,28690
14100.5,14112
28690,29300
14112,14225
28300,29510
14225,14235
29510,29700
14235,14350
