VLF,Very Low Frecuency,3,30,10000000,100000000
LF,Low Frecuency,30,300,1000000,10000000
MF,Médium Frecuency,300,3000,100000,1000000
HF,High Frecuency HF,3000,30000,10000,100000
VHF,Very High Frecuency,30000,300000,1000,10000
UHF,Ultra High Frecuency,300000,3000000,100,1000
SHF,Super High Frecuency,3000000,30000000,10,100
EHF,Extremely High Frecuency,30000000,300000000,1,10
