\relax 
\@writefile{toc}{\contentsline {section}{\numberline {1}Modelo relacional}{1}}
\@writefile{lof}{\contentsline {figure}{\numberline {1}{\ignorespaces Modelo relacional base de dato}}{2}}
\newlabel{fig:modelo}{{1}{2}}
\@writefile{toc}{\contentsline {section}{\numberline {2}Carga de datos}{3}}
