27.5;28
28;29.7
29.7;44
44;47
47;50
50;54
54;68
68;72
72;73
73;74.6
74.6;74.8
74.8;75.2
75.2;75.4
75.4;76
76;88
88;108
108;117.975
117.975;137
137;137.025
137.025;137.175
137.175;137.825
137.825;138
138;143.6
143.6;143.65
143.65;144
144;146
146;148
148;149.9
149.9;150.05
150.05;156.4875
156.4875;156.5625
156.5625;156.7625
156.7625;157.45
157.45;160.6
160.6;162.05
162.05;174
174;216
216;220
220;225
225;227.5
227.5;228.25
228.25;232.5
232.5;233.25
233.25;235
235;245.45
245.45;246.95
246.95;267
267;272
272;273
273;300
300;312
312;315
315;322
322;328.6
328.6;335.4
335.4;343
343;343.05
343.05;345.15
345.15;357.05
357.05;359.15
359.15;380.025
380.025;382
382;387
387;390
390;390.025
390.025;392
392;399.9
399.9;400.05
400.05;400.15
400.15;401
401;402
402;403
403;406
406;406.1
406.1;410
410;420
420;430
430;432
432;438
438;440
440;450
450;455
455;456
456;459
459;460
460;470
470;482
482;512
512;608
608;614
614;698
698;806
806;821
821;824
824;849
849;851
851;866
866;869
869;890
890;894
894;896
896;897.125
897.125;897.5
897.5;902
902;905
905;908
908;915
915;924
924;928
928;932
932;935
935;936.125
936.125;940
940;942
942;942.5
942.5;950
950;953
953;960
960;1164
1164;1215
1215;1240
1240;1260
1260;1300
1300;1350
1350;1400
1400;1427
1427;1429
1429;1452
1452;1492
1492;1518
1518;1525
1525;1530
1530;1533
1533;1535
1535;1544
1544;1545
1545;1555
1555;1559
1559;1610
1610;1610.6
1610.6;1613.8
1613.8;1626.5
1626.5;1631.5
1631.5;1636.5
1636.5;1645.5
1645.5;1646.5
1646.5;1656.5
1656.5;1660
1660;1660.5
1660.5;1668
1668;1668.4
1668.4;1670
1670;1675
1675;1690
1690;1700
1700;1710
1710;1890
1890;1895
1895;1910
1910;1930
1930;1970
1970;1975
1975;1980
1980;1990
1990;2010
2010;2025
2025;2110
2110;2120
2120;2160
2160;2170
2170;2200
2200;2290
2290;2300
2300;2400
2400;2450
2450;2483.5
2483.5;2500
2500;2520
2520;2655
2655;2670
2670;2690
2690;2700
2700;2900
2900;3100
3100;3300
3300;3400
3400;3500
3500;3700
3700;4200
4200;4400
4400;4500
4500;4800
4800;4990
4990;5000
5000;5010
5010;5030
5030;5091
5091;5150
5150;5250
5250;5255
5255;5350
5350;5460
5460;5470
5470;5570
5570;5650
5650;5725
5725;5830
5830;5850
5850;5925
5925;6700
6700;7075
7075;7145
7145;7235
7235;7250
7250;7300
7300;7450
7450;7550
7550;7750
7750;7850
7850;7900
7900;8025
8025;8175
8175;8215
8215;8400
8400;8500
8500;8550
8550;8650
8650;8750
8750;8850
8850;9000
9000;9200
9200;9300
9300;9500
9500;9800
9800;9900
9900;10000
