"VALLE DEL CAUCA","CALI"
"VALLE DEL CAUCA","ALCALÁ"
"VALLE DEL CAUCA","ANDALUCÍA"
"VALLE DEL CAUCA","ANSERMANUEVO"
"VALLE DEL CAUCA","ARGELIA"
"VALLE DEL CAUCA","BOLÍVAR"
"VALLE DEL CAUCA","BUENAVENTURA"
"VALLE DEL CAUCA","GUADALAJARA DE BUGA"
"VALLE DEL CAUCA","BUGALAGRANDE"
"VALLE DEL CAUCA","CAICEDONIA"
"VALLE DEL CAUCA","CALIMA"
"VALLE DEL CAUCA","CANDELARIA"
"VALLE DEL CAUCA","CARTAGO"
"VALLE DEL CAUCA","DAGUA"
"VALLE DEL CAUCA","EL ÁGUILA"
"VALLE DEL CAUCA","EL CAIRO"
"VALLE DEL CAUCA","EL CERRITO"
"VALLE DEL CAUCA","EL DOVIO"
"VALLE DEL CAUCA","FLORIDA"
"VALLE DEL CAUCA","GINEBRA"
"VALLE DEL CAUCA","GUACARÍ"
"VALLE DEL CAUCA","JAMUNDÍ"
"VALLE DEL CAUCA","LA CUMBRE"
"VALLE DEL CAUCA","LA UNIÓN"
"VALLE DEL CAUCA","LA VICTORIA"
"VALLE DEL CAUCA","OBANDO"
"VALLE DEL CAUCA","PALMIRA"
"VALLE DEL CAUCA","PRADERA"
"VALLE DEL CAUCA","RESTREPO"
"VALLE DEL CAUCA","RIOFRÍO"
"VALLE DEL CAUCA","ROLDANILLO"
"VALLE DEL CAUCA","SAN PEDRO"
"VALLE DEL CAUCA","SEVILLA"
"VALLE DEL CAUCA","TORO"
"VALLE DEL CAUCA","TRUJILLO"
"VALLE DEL CAUCA","TULUÁ"
"VALLE DEL CAUCA","ULLOA"
"VALLE DEL CAUCA","VERSALLES"
"VALLE DEL CAUCA","VIJES"
"VALLE DEL CAUCA","YOTOCO"
"VALLE DEL CAUCA","YUMBO"
"VALLE DEL CAUCA","ZARZAL"
