"SUCRE","SINCELEJO"
"SUCRE","BUENAVISTA"
"SUCRE","CAIMITO"
"SUCRE","COLOSO"
"SUCRE","COROZAL"
"SUCRE","COVEÑAS"
"SUCRE","CHALÁN"
"SUCRE","EL ROBLE"
"SUCRE","GALERAS"
"SUCRE","GUARANDA"
"SUCRE","LA UNIÓN"
"SUCRE","LOS PALMITOS"
"SUCRE","MAJAGUAL"
"SUCRE","MORROA"
"SUCRE","OVEJAS"
"SUCRE","PALMITO"
"SUCRE","SAMPUÉS"
"SUCRE","SAN BENITO ABAD"
"SUCRE","SAN JUAN DE BETULIA"
"SUCRE","SAN MARCOS"
"SUCRE","SAN ONOFRE"
"SUCRE","SAN PEDRO"
"SUCRE","SAN LUIS DE SINCÉ"
"SUCRE","SUCRE"
"SUCRE","SANTIAGO DE TOLÚ"
"SUCRE","TOLÚ VIEJO"
