"CASANARE","YOPAL"
"CASANARE","AGUAZUL"
"CASANARE","CHAMEZA"
"CASANARE","HATO COROZAL"
"CASANARE","LA SALINA"
"CASANARE","MANÍ"
"CASANARE","MONTERREY"
"CASANARE","NUNCHÍA"
"CASANARE","OROCUÉ"
"CASANARE","PAZ DE ARIPORO"
"CASANARE","PORE"
"CASANARE","RECETOR"
"CASANARE","SABANALARGA"
"CASANARE","SÁCAMA"
"CASANARE","SAN LUIS DE PALENQUE"
"CASANARE","TÁMARA"
"CASANARE","TAURAMENA"
"CASANARE","TRINIDAD"
"CASANARE","VILLANUEVA"
