"RISARALDA","PEREIRA"
"RISARALDA","APÍA"
"RISARALDA","BALBOA"
"RISARALDA","BELÉN DE UMBRÍA"
"RISARALDA","DOSQUEBRADAS"
"RISARALDA","GUÁTICA"
"RISARALDA","LA CELIA"
"RISARALDA","LA VIRGINIA"
"RISARALDA","MARSELLA"
"RISARALDA","MISTRATÓ"
"RISARALDA","PUEBLO RICO"
"RISARALDA","QUINCHÍA"
"RISARALDA","SANTA ROSA DE CABAL"
"RISARALDA","SANTUARIO"
