\relax 
\catcode`"\active
\catcode`<\active
\catcode`>\active
\@nameuse{es@quoting}
\select@language{spanish}
\@writefile{toc}{\select@language{spanish}}
\@writefile{lof}{\select@language{spanish}}
\@writefile{lot}{\select@language{spanish}}
\@writefile{toc}{\contentsline {section}{\numberline {1}Introducci\IeC {\'o}n}{1}}
\@writefile{toc}{\contentsline {section}{\numberline {2}Gesti\IeC {\'o}n de Notas Nacionales e Internacionales}{1}}
\@writefile{toc}{\contentsline {subsection}{\numberline {2.1}Consultar Notas}{2}}
\@writefile{toc}{\contentsline {subsection}{\numberline {2.2}Detalles Notas y Borrar Notas}{3}}
\@writefile{toc}{\contentsline {subsection}{\numberline {2.3}Editar Nota.}{4}}
\@writefile{toc}{\contentsline {subsection}{\numberline {2.4}Agregar Nota }{5}}
\@writefile{toc}{\contentsline {section}{\numberline {3}Gesti\IeC {\'o}n de Regiones}{5}}
\@writefile{toc}{\contentsline {subsection}{\numberline {3.1}Agregar Regi\IeC {\'o}n}{5}}
\@writefile{toc}{\contentsline {section}{\numberline {4}Gesti\IeC {\'o}n Servicios}{6}}
\@writefile{toc}{\contentsline {subsection}{\numberline {4.1}Consultar Servicios}{6}}
\@writefile{toc}{\contentsline {section}{\numberline {5}Bandas de Frecuencias}{7}}
\@writefile{toc}{\contentsline {subsection}{\numberline {5.1}Consultar Bandas}{7}}
\@writefile{toc}{\contentsline {subsection}{\numberline {5.2}Vista Gr\'afica}{8}}
\@writefile{toc}{\contentsline {subsection}{\numberline {5.3}Detalles de Banda}{9}}
