10;10.45
10.45;10.5
10.5;10.55
10.55;10.6
10.6;10.68
10.68;10.7
10.7;11.7
11.7;12.1
12.1;12.2
12.2;12.7
12.7;12.75
12.75;13.25
13.25;13.4
13.4;13.75
13.75;14
14;14.25
14.25;14.3
14.3;14.4
14.4;14.47
14.47;14.5
14.5;14.8
14.8;15.35
15.35;15.4
15.4;15.43
15.43;15.63
15.63;15.7
15.7;16.6
16.6;17.1
17.1;17.2
17.2;17.3
17.3;17.7
17.7;17.8
17.8;18.1
18.1;18.4
18.4;18.6
18.6;18.8
18.8;19.3
19.3;19.7
19.7;20.1
20.1;20.2
20.2;21.2
21.2;21.4
21.4;22
22;22.21
22.21;22.5
22.5;22.55
22.55;23.55
23.55;23.6
23.6;24
24;24.05
24.05;24.25
24.25;24.45
24.45;24.65
24.65;24.75
24.75;25.25
25.25;25.5
25.5;27
27;27.5
27.5;28.5
28.5;29.1
29.1;29.5
29.5;29.9
29.9;30
30;31
31;31.3
31.3;31.5
31.5;31.8
31.8;32
32;32.3
32.3;33
33;33.4
33.4;34.2
34.2;34.7
34.7;35.2
35.2;35.5
35.5;36
36;37
37;37.5
37.5;37.55
37.55;38
38;39.5
39.5;40
40;40.5
40.5;41
41;42.5
42.5;43.5
43.5;47
47;47.2
47.2;47.5
47.5;47.9
47.9;48.2
48.2;50.2
50.2;50.4
50.4;51.4
51.4;52.6
52.6;54.25
54.25;55.78
55.78;56.9
56.9;57
57;58.2
58.2;59
59;59.3
59.3;64
64;65
65;66
66;71
71;74
74;76
76;77.5
77.5;78
78;79
79;81
81;84
84;86
86;92
92;94
94;94.1
94.1;95
95;100
100;102
102;105
105;109.5
109.5;111.8
111.8;114.25
114.25;116
116;119.98
119.98;120.02
120.02;122.25
122.25;123
123;126
126;130
130;134
134;136
136;141
141;148.5
148.5;151.5
151.5;155.5
155.5;158.5
158.5;164
164;167
167;168
168;170
170;174.5
174.5;174.8
174.8;182
182;185
185;190
190;191.8
191.8;200
200;209
209;217
217;226
226;231.5
231.5;232
232;235
235;238
238;240
240;241
241;248
248;250
250;252
252;265
265;275
275;1000
